R Event Study
…
market <- mar_wide %>% 
  pivot_longer(-date, names_to = "country", values_to = "mret")
                  
# date formatting
returns <- returns %>% mutate(date = dmy(date))
market <- market %>% mutate(date = dmy(date))
events <- events %>% mutate(event = dmy(event))

Inspect data

returns

## # A tibble: 26,604 x 3
##    date       company          ret
##    <date>     <chr>          <dbl>
##  1 1997-01-02 Chrysler     0.0341 
##  2 1997-01-02 BellSouth    0.0185 
##  3 1997-01-02 Engelhard    0.00654
##  4 1997-01-02 Norsk Hydro -0.00481
##  5 1997-01-02 Pilkington  -0.0120 
##  6 1997-01-02 INA          0.00787
##  7 1997-01-03 Chrysler     0.0146 
##  8 1997-01-03 BellSouth   -0.00607
##  9 1997-01-03 Engelhard    0.0195 
## 10 1997-01-03 Norsk Hydro  0.00489
## #  with 26,594 more rows

market

## # A tibble: 17,736 x 3
##    date       country      mret
##    <date>     <chr>       <dbl>
##  1 1997-01-02 us      -0.00751 
##  2 1997-01-02 norway  -0.00260 
##  3 1997-01-02 uk      -0.0241  
##  4 1997-01-02 italy   -0.00600 
##  5 1997-01-03 us       0.0149  
##  6 1997-01-03 norway   0.00511 
##  7 1997-01-03 uk       0.00795 
##  8 1997-01-03 italy   -0.00366 
##  9 1997-01-06 us       0.000372
## 10 1997-01-06 norway   0.0106  
## #  with 17,726 more rows
…
Merge Data

countries <- tibble(
  company = c("Chrysler", "BellSouth", "Engelhard", "Norsk Hydro", "Pilkington", "INA"), 
  country = c("us", "us", "us", "norway", "uk", "italy")
)

# merge into one dataset
merged <- left_join(returns, countries, by = "company")
merged <- left_join(merged, market, by = c("date", "country"))
merged <- left_join(merged, events, by = "company")
merged

## # A tibble: 26,604 x 6
##    date       company          ret country     mret event     
##    <date>     <chr>          <dbl> <chr>      <dbl> <date>    
##  1 1997-01-02 Chrysler     0.0341  us      -0.00751 1998-05-06
##  2 1997-01-02 BellSouth    0.0185  us      -0.00751 2006-03-06
##  3 1997-01-02 Engelhard    0.00654 us      -0.00751 2006-01-03
##  4 1997-01-02 Norsk Hydro -0.00481 norway  -0.00260 2006-12-18
##  5 1997-01-02 Pilkington  -0.0120  uk      -0.0241  2005-10-31
##  6 1997-01-02 INA          0.00787 italy   -0.00600 1999-09-14
##  7 1997-01-03 Chrysler     0.0146  us       0.0149  1998-05-06
##  8 1997-01-03 BellSouth   -0.00607 us       0.0149  2006-03-06
##  9 1997-01-03 Engelhard    0.0195  us       0.0149  2006-01-03
## 10 1997-01-03 Norsk Hydro  0.00489 norway   0.00511 2006-12-18
## #  with 26,594 more rows

Estimation and Events

# calculate the event-time as the difference in days to the event
merged <- merged %>% 
  group_by(company) %>% 
  mutate(
    date_index = 1:n(),
    event_index = max(ifelse(event == date, date_index, 0)),
    event_time = date_index - event_index
  )

merged

## # A tibble: 26,604 x 9
## # Groups:   company [6]
##    date       company      ret country     mret event      date_index
##    <date>     <chr>      <dbl> <chr>      <dbl> <date>          <int>
##  1 1997-01-02 Chrysl  0.0341  us      -0.00751 1998-05-06          1
##  2 1997-01-02 BellSo  0.0185  us      -0.00751 2006-03-06          1
##  3 1997-01-02 Engelh  0.00654 us      -0.00751 2006-01-03          1
##  4 1997-01-02 Norsk  -0.00481 norway  -0.00260 2006-12-18          1
##  5 1997-01-02 Pilkin -0.0120  uk      -0.0241  2005-10-31          1
##  6 1997-01-02 INA      0.00787 italy   -0.00600 1999-09-14          1
##  7 1997-01-03 Chrysl  0.0146  us       0.0149  1998-05-06          2
##  8 1997-01-03 BellSo -0.00607 us       0.0149  2006-03-06          2
##  9 1997-01-03 Engelh  0.0195  us       0.0149  2006-01-03          2
## 10 1997-01-03 Norsk   0.00489 norway   0.00511 2006-12-18          2
## #  with 26,594 more rows, and 2 more variables: event_index <dbl>,
## #   event_time <dbl>
…
# filter returns
estimation <- merged %>% 
  filter(event_time >= estimation_window[1],
         event_time <= estimation_window[2])

event <- merged %>% 
  filter(event_time >= event_window[1],
         event_time <= event_window[2])

# have a look at the data
estimation

## # A tibble: 1,200 x 9
## # Groups:   company [6]
##    date       company      ret country     mret event      date_index
##    <date>     <chr>      <dbl> <chr>      <dbl> <date>          <int>
##  1 1997-06-18 Chrysl  0.00384 us      -4.62e-3 1998-05-06        120
##  2 1997-06-19 Chrysl -0.00382 us       9.95e-3 1998-05-06        121
##  3 1997-06-20 Chrysl  0       us       2.97e-4 1998-05-06        122
##  4 1997-06-23 Chrysl -0.0115  us      -2.02e-2 1998-05-06        123
##  5 1997-06-24 Chrysl  0.0234  us       1.80e-2 1998-05-06        124
##  6 1997-06-25 Chrysl -0.00381 us      -7.57e-3 1998-05-06        125
##  7 1997-06-26 Chrysl  0.0114  us      -5.73e-3 1998-05-06        126
##  8 1997-06-27 Chrysl -0.0113  us       3.88e-3 1998-05-06        127
##  9 1997-06-30 Chrysl  0.00382 us      -2.63e-3 1998-05-06        128
## 10 1997-07-01 Chrysl -0.00951 us       6.59e-3 1998-05-06        129
## #  with 1,190 more rows, and 2 more variables: event_index <dbl>,
## #   event_time <dbl>

event

## # A tibble: 366 x 9
## # Groups:   company [6]
##    date       company      ret country     mret event      date_index
##    <date>     <chr>      <dbl> <chr>      <dbl> <date>          <int>
##  1 1998-03-25 Chrysl -0.0173  us      -2.22e-3 1998-05-06        320
##  2 1998-03-26 Chrysl -0.0132  us      -4.97e-4 1998-05-06        321
##  3 1998-03-27 Chrysl  0.00149 us      -4.67e-3 1998-05-06        322
##  4 1998-03-30 Chrysl -0.00593 us      -1.51e-3 1998-05-06        323
##  5 1998-03-31 Chrysl -0.00598 us       7.87e-3 1998-05-06        324
##  6 1998-04-01 Chrysl  0.00601 us       6.25e-3 1998-05-06        325
##  7 1998-04-02 Chrysl -0.0209  us       9.74e-3 1998-05-06        326
##  8 1998-04-03 Chrysl -0.00305 us       2.18e-3 1998-05-06        327
##  9 1998-04-06 Chrysl  0.0214  us      -3.87e-3 1998-05-06        328
## 10 1998-04-07 Chrysl  0.00300 us      -9.71e-3 1998-05-06        329
## #  with 356 more rows, and 2 more variables: event_index <dbl>,
## #   event_time <dbl>
…
event_capm <- left_join(event, capm, by = "company") %>% 
  # compute the expected return
  mutate(capm = alpha + mret * beta,
         alpha = NULL,
         beta = NULL)
event_capm

## # A tibble: 366 x 10
## # Groups:   company [6]
##    date       company      ret country     mret event      date_index
##    <date>     <chr>      <dbl> <chr>      <dbl> <date>          <int>
##  1 1998-03-25 Chrysl -0.0173  us      -2.22e-3 1998-05-06        320
##  2 1998-03-26 Chrysl -0.0132  us      -4.97e-4 1998-05-06        321
##  3 1998-03-27 Chrysl  0.00149 us      -4.67e-3 1998-05-06        322
##  4 1998-03-30 Chrysl -0.00593 us      -1.51e-3 1998-05-06        323
##  5 1998-03-31 Chrysl -0.00598 us       7.87e-3 1998-05-06        324
##  6 1998-04-01 Chrysl  0.00601 us       6.25e-3 1998-05-06        325
##  7 1998-04-02 Chrysl -0.0209  us       9.74e-3 1998-05-06        326
##  8 1998-04-03 Chrysl -0.00305 us       2.18e-3 1998-05-06        327
##  9 1998-04-06 Chrysl  0.0214  us      -3.87e-3 1998-05-06        328
## 10 1998-04-07 Chrysl  0.00300 us      -9.71e-3 1998-05-06        329
## #  with 356 more rows, and 3 more variables: event_index <dbl>,
## #   event_time <dbl>, capm <dbl>

Nonetheless, we will continue the tests using the CMRM and leave the testing of the CAPM to the interested reader.

Merge Returns

Next, we want to merge the expected returns into the event-dataset to be able to calculate the next steps.

# select only necessary variables 
event <- event %>% select(company, ret, event_time)
event <- left_join(event, cmrm, by = "company")
event

## # A tibble: 366 x 4
## # Groups:   company [6]
##    company       ret event_time    cmrm
##    <chr>       <dbl>      <dbl>   <dbl>
##  1 Chrysler -0.0173         -30 0.00173
##  2 Chrysler -0.0132         -29 0.00173
##  3 Chrysler  0.00149        -28 0.00173
##  4 Chrysler -0.00593        -27 0.00173
##  5 Chrysler -0.00598        -26 0.00173
##  6 Chrysler  0.00601        -25 0.00173
##  7 Chrysler -0.0209         -24 0.00173
##  8 Chrysler -0.00305        -23 0.00173
##  9 Chrysler  0.0214         -22 0.00173
## 10 Chrysler  0.00300        -21 0.00173
## #  with 356 more rows

Calculate the Abnormal Returns

The abnormal return in period \(t\) for company \(i\) is given by \[AR_{i,t} = R_{i,t} - E\left[R_{i,t}\right]\] which we can calculate in R like this

event <- event %>% mutate(ar = ret - cmrm)
event

## # A tibble: 366 x 5
## # Groups:   company [6]
##    company       ret event_time    cmrm        ar
##    <chr>       <dbl>      <dbl>   <dbl>     <dbl>
##  1 Chrysler -0.0173         -30 0.00173 -0.0190  
##  2 Chrysler -0.0132         -29 0.00173 -0.0149  
##  3 Chrysler  0.00149        -28 0.00173 -0.000245
##  4 Chrysler -0.00593        -27 0.00173 -0.00766 
##  5 Chrysler -0.00598        -26 0.00173 -0.00771 
##  6 Chrysler  0.00601        -25 0.00173  0.00428 
##  7 Chrysler -0.0209         -24 0.00173 -0.0226  
##  8 Chrysler -0.00305        -23 0.00173 -0.00478 
##  9 Chrysler  0.0214         -22 0.00173  0.0197  
## 10 Chrysler  0.00300        -21 0.00173  0.00126 
## #  with 356 more rows

Calculate the Cumulative Abnormal Returns

The CARs are given by \[ CAR_{i,t}=\displaystyle\sum_{k=1}^t AR_{i,t-k} \] with a known distribution of \[ CAR_{i,t} \sim N(0, \sigma_{i,t}^2) \] In R we can calculate the CARs like this

indiv_event <-  event %>% group_by(company) %>% mutate(car = cumsum(ar))
indiv_event

## # A tibble: 366 x 6
## # Groups:   company [6]
##    company       ret event_time    cmrm        ar     car
##    <chr>       <dbl>      <dbl>   <dbl>     <dbl>   <dbl>
##  1 Chrysler -0.0173         -30 0.00173 -0.0190   -0.0190
##  2 Chrysler -0.0132         -29 0.00173 -0.0149   -0.0340
##  3 Chrysler  0.00149        -28 0.00173 -0.000245 -0.0342
##  4 Chrysler -0.00593        -27 0.00173 -0.00766  -0.0419
##  5 Chrysler -0.00598        -26 0.00173 -0.00771  -0.0496
##  6 Chrysler  0.00601        -25 0.00173  0.00428  -0.0453
##  7 Chrysler -0.0209         -24 0.00173 -0.0226   -0.0679
##  8 Chrysler -0.00305        -23 0.00173 -0.00478  -0.0727
##  9 Chrysler  0.0214         -22 0.00173  0.0197   -0.0530
## 10 Chrysler  0.00300        -21 0.00173  0.00126  -0.0518
## #  with 356 more rows
…
We can also calculate aggregated values (\(AAR\) as the average abnormal return) per day, which is handy, for example for ploting

# aggregated
agg_event <- event %>% group_by(event_time) %>% summarise(aar = mean(ar))
agg_event <- agg_event %>% mutate(car = cumsum(aar))
agg_event

## # A tibble: 61 x 3
##    event_time       aar       car
##         <dbl>     <dbl>     <dbl>
##  1        -30  0.0112    0.0112  
##  2        -29 -0.00671   0.00452 
##  3        -28 -0.00415   0.000364
##  4        -27  0.00292   0.00329 
##  5        -26  0.00278   0.00607 
##  6        -25 -0.000583  0.00549 
##  7        -24 -0.0127   -0.00719 
##  8        -23  0.00429  -0.00291 
##  9        -22  0.00559   0.00269 
## 10        -21 -0.00326  -0.000577
## #  with 51 more rows
…
T-test

The first chunk uses a t-test to test the individual ARs (the question we are trying to answer: Is the abnormal return in time-period \(t\) different from zero?).

test1 <- indiv_event %>% 
  group_by(event_time) %>% 
  summarise(mean_ar = mean(ar),
         var_ar = 1/(n()*(n() - 1)) * sum((ar - mean_ar)^2),
         t_value = mean_ar / sqrt(var_ar),
         p_value = pt(abs(t_value), df = n(), lower.tail = F)*2)

test1

## # A tibble: 61 x 5
##    event_time   mean_ar     var_ar t_value p_value
##         <dbl>     <dbl>      <dbl>   <dbl>   <dbl>
##  1        -30  0.0112   0.0000795   1.26    0.255 
##  2        -29 -0.00671  0.0000111  -2.01    0.0907
##  3        -28 -0.00415  0.0000596  -0.538   0.610 
##  4        -27  0.00292  0.0000887   0.311   0.767 
##  5        -26  0.00278  0.00000740  1.02    0.346 
##  6        -25 -0.000583 0.0000349  -0.0988  0.924 
##  7        -24 -0.0127   0.0000297  -2.33    0.0589
##  8        -23  0.00429  0.0000120   1.24    0.262 
##  9        -22  0.00559  0.0000183   1.31    0.239 
## 10        -21 -0.00326  0.000118   -0.301   0.774 
## #  with 51 more rows
…
